{
    "openapi": "3.0.0",
    "info": {
        "title": "REST API for a product catalog",
        "description": "Simple REST API for a product catalog",
        "contact": {
            "email": "hbarral@mail.ru"
        },
        "license": {
            "name": "Apache 2.0",
            "url": "http://www.apache.org/licenses/LICENSE-2.0.html"
        },
        "version": "1.0.0"
    },
    "servers": [
        {
            "url": "http://localhost:8000/api",
            "description": "Simple REST API for a product catalog Server"
        }
    ],
    "paths": {
        "/auth/login": {
            "post": {
                "tags": [
                    "Authentication"
                ],
                "summary": "Get a JWT via given credentials.",
                "operationId": "login",
                "requestBody": {
                    "description": "Login",
                    "content": {
                        "multipart/form-data": {
                            "schema": {
                                "required": [
                                    "email",
                                    "password"
                                ],
                                "properties": {
                                    "email": {
                                        "description": "Your email",
                                        "type": "string",
                                        "format": "email",
                                        "example": "john.doe@mail.ru"
                                    },
                                    "password": {
                                        "description": "Your password",
                                        "type": "string",
                                        "format": "password",
                                        "example": "1234567890"
                                    }
                                },
                                "type": "object"
                            }
                        }
                    }
                },
                "responses": {
                    "200": {
                        "description": "Return a token",
                        "content": {
                            "application/json": {
                                "schema": {
                                    "properties": {
                                        "access_token": {
                                            "type": "string",
                                            "example": "eyJ0eXAiOiJKV1QiLCJhbGciOiJIUzI1NiJ9...."
                                        },
                                        "token_type": {
                                            "type": "string",
                                            "example": "bearer"
                                        },
                                        "expires_in": {
                                            "type": "number",
                                            "format": "int64",
                                            "example": "86400"
                                        }
                                    },
                                    "type": "object"
                                }
                            }
                        }
                    },
                    "401": {
                        "description": "Unauthorized",
                        "content": {
                            "application/json": {
                                "schema": {
                                    "properties": {
                                        "error": {
                                            "type": "string",
                                            "example": "Unauthorized"
                                        }
                                    },
                                    "type": "object"
                                }
                            }
                        }
                    }
                }
            }
        },
        "/auth/register": {
            "post": {
                "tags": [
                    "Authentication"
                ],
                "summary": "Register a new user",
                "operationId": "register",
                "requestBody": {
                    "description": "Register",
                    "content": {
                        "multipart/form-data": {
                            "schema": {
                                "required": [
                                    "name",
                                    "email",
                                    "password",
                                    "password_confirmation"
                                ],
                                "properties": {
                                    "name": {
                                        "description": "Your name",
                                        "type": "string",
                                        "example": "John Doe"
                                    },
                                    "email": {
                                        "description": "Your email",
                                        "type": "string",
                                        "format": "email",
                                        "example": "john.doe@mail.ru"
                                    },
                                    "password": {
                                        "description": "Your password",
                                        "type": "string",
                                        "format": "password",
                                        "example": "1234567890"
                                    },
                                    "password_confirmation": {
                                        "description": "Confirm your password",
                                        "type": "string",
                                        "format": "password",
                                        "example": "1234567890"
                                    }
                                },
                                "type": "object"
                            }
                        }
                    }
                },
                "responses": {
                    "201": {
                        "description": "Return a new user with token",
                        "content": {
                            "application/json": {
                                "schema": {
                                    "properties": {
                                        "user": {
                                            "$ref": "#/components/schemas/User"
                                        },
                                        "access_token": {
                                            "type": "string",
                                            "example": "eyJ0eXAiOiJKV1QiLCJhbGciOiJIUzI1NiJ9...."
                                        }
                                    },
                                    "type": "object"
                                }
                            }
                        }
                    },
                    "400": {
                        "description": "Bad request",
                        "content": {
                            "application/json": {
                                "schema": {
                                    "properties": {
                                        "property": {
                                            "type": "array",
                                            "items": {
                                                "example": "Error description"
                                            }
                                        }
                                    },
                                    "type": "object"
                                }
                            }
                        }
                    }
                }
            }
        },
        "/auth/update": {
            "post": {
                "tags": [
                    "Authentication"
                ],
                "summary": "Update current user details",
                "operationId": "update",
                "requestBody": {
                    "description": "Update",
                    "content": {
                        "multipart/form-data": {
                            "schema": {
                                "required": [
                                    "name",
                                    "email",
                                    "password",
                                    "password_confirmation"
                                ],
                                "properties": {
                                    "name": {
                                        "description": "Your name",
                                        "type": "string",
                                        "example": "John Doe"
                                    },
                                    "email": {
                                        "description": "Your email",
                                        "type": "string",
                                        "format": "email",
                                        "example": "john.doe@mail.ru"
                                    },
                                    "password": {
                                        "description": "Your password",
                                        "type": "string",
                                        "format": "password",
                                        "example": "1234567890"
                                    },
                                    "password_confirmation": {
                                        "description": "Confirm your password",
                                        "type": "string",
                                        "format": "password",
                                        "example": "1234567890"
                                    }
                                },
                                "type": "object"
                            }
                        }
                    }
                },
                "responses": {
                    "200": {
                        "description": "Return a user",
                        "content": {
                            "application/json": {
                                "schema": {
                                    "properties": {
                                        "user": {
                                            "$ref": "#/components/schemas/User"
                                        }
                                    },
                                    "type": "object"
                                }
                            }
                        }
                    },
                    "400": {
                        "description": "Bad request",
                        "content": {
                            "application/json": {
                                "schema": {
                                    "properties": {
                                        "property": {
                                            "type": "string",
                                            "example": "Error description"
                                        }
                                    },
                                    "type": "object"
                                }
                            }
                        }
                    }
                },
                "security": [
                    {
                        "bearerAuth": []
                    }
                ]
            }
        },
        "/auth/me": {
            "post": {
                "tags": [
                    "Authentication"
                ],
                "summary": "Get current user details",
                "operationId": "me",
                "responses": {
                    "200": {
                        "description": "Return a current user details.",
                        "content": {
                            "application/json": {
                                "schema": {
                                    "$ref": "#/components/schemas/User"
                                }
                            }
                        }
                    },
                    "400": {
                        "description": "Bad request",
                        "content": {
                            "application/json": {
                                "schema": {
                                    "properties": {
                                        "property": {
                                            "type": "array",
                                            "items": {
                                                "example": "Error description"
                                            }
                                        }
                                    },
                                    "type": "object"
                                }
                            }
                        }
                    }
                },
                "security": [
                    {
                        "bearerAuth": []
                    }
                ]
            }
        },
        "/auth/logout": {
            "post": {
                "tags": [
                    "Authentication"
                ],
                "summary": "Log the user out (Invalidate the token).",
                "operationId": "logout",
                "responses": {
                    "200": {
                        "description": "Logout the current user.",
                        "content": {
                            "application/json": {
                                "schema": {
                                    "properties": {
                                        "message": {
                                            "example": "Successfully logged out"
                                        }
                                    },
                                    "type": "object"
                                }
                            }
                        }
                    },
                    "400": {
                        "description": "Bad Request",
                        "content": {
                            "application/json": {
                                "schema": {
                                    "properties": {
                                        "error": {
                                            "example": "Error description"
                                        }
                                    },
                                    "type": "object"
                                }
                            }
                        }
                    }
                },
                "security": [
                    {
                        "bearerAuth": []
                    }
                ]
            }
        },
        "/auth/refresh": {
            "post": {
                "tags": [
                    "Authentication"
                ],
                "summary": "Renew the current token",
                "operationId": "refresh",
                "responses": {
                    "200": {
                        "description": "Return a new token",
                        "content": {
                            "application/json": {
                                "schema": {
                                    "properties": {
                                        "access_token": {
                                            "type": "string",
                                            "example": "eyJ0eXAiOiJKV1QiLCJhbGciOiJIUzI1NiJ9...."
                                        },
                                        "token_type": {
                                            "type": "string",
                                            "example": "bearer"
                                        },
                                        "expires_in": {
                                            "type": "number",
                                            "format": "int64",
                                            "example": "86400"
                                        }
                                    },
                                    "type": "object"
                                }
                            }
                        }
                    },
                    "400": {
                        "description": "Bad request",
                        "content": {
                            "application/json": {
                                "schema": {
                                    "properties": {
                                        "error": {
                                            "type": "string",
                                            "example": "Error description"
                                        }
                                    },
                                    "type": "object"
                                }
                            }
                        }
                    }
                },
                "security": [
                    {
                        "bearerAuth": []
                    }
                ]
            }
        },
        "/auth/payload": {
            "post": {
                "tags": [
                    "Authentication"
                ],
                "summary": "Get details about the current token",
                "operationId": "payload",
                "responses": {
                    "200": {
                        "description": "Return a payload",
                        "content": {
                            "application/json": {
                                "schema": {
                                    "properties": {
                                        "iss": {
                                            "type": "string",
                                            "example": "issuer url"
                                        },
                                        "iat": {
                                            "type": "number",
                                            "example": "1569586179"
                                        },
                                        "exp": {
                                            "type": "number",
                                            "example": "1569672579"
                                        },
                                        "nbf": {
                                            "type": "number",
                                            "example": "1569586179"
                                        },
                                        "jti": {
                                            "type": "number",
                                            "example": "FlhxzZn4ZOqJ9CSa"
                                        },
                                        "sub": {
                                            "type": "number",
                                            "example": "4"
                                        },
                                        "prv": {
                                            "type": "string",
                                            "example": "87e0af1ef9fd15812fdec97153a14e0b047546aa"
                                        }
                                    },
                                    "type": "object"
                                }
                            }
                        }
                    },
                    "400": {
                        "description": "Bad request",
                        "content": {
                            "application/json": {
                                "schema": {
                                    "properties": {
                                        "error": {
                                            "type": "string",
                                            "example": "Error description"
                                        }
                                    },
                                    "type": "object"
                                }
                            }
                        }
                    }
                },
                "security": [
                    {
                        "bearerAuth": []
                    }
                ]
            }
        },
        "/category": {
            "get": {
                "tags": [
                    "Category"
                ],
                "summary": "Display a list of categories.",
                "operationId": "categoriesAll",
                "parameters": [
                    {
                        "name": "page",
                        "in": "query",
                        "description": "The page number",
                        "required": false,
                        "schema": {
                            "type": "integer"
                        }
                    }
                ],
                "responses": {
                    "200": {
                        "description": "Return all categories",
                        "content": {
                            "application/json": {
                                "schema": {
                                    "type": "array",
                                    "items": {
                                        "$ref": "#/components/schemas/Category"
                                    }
                                }
                            }
                        }
                    }
                },
                "security": [
                    {
                        "bearerAuth": []
                    }
                ]
            },
            "post": {
                "tags": [
                    "Category"
                ],
                "summary": "Create a new category.",
                "operationId": "categoryCreate",
                "requestBody": {
                    "description": "Input data format",
                    "content": {
                        "multipart/form-data": {
                            "schema": {
                                "required": [
                                    "name"
                                ],
                                "properties": {
                                    "name": {
                                        "description": "Category Name",
                                        "type": "string"
                                    },
                                    "description": {
                                        "description": "Description of the category",
                                        "type": "string"
                                    }
                                },
                                "type": "object"
                            }
                        }
                    }
                },
                "responses": {
                    "201": {
                        "description": "The category has been saved."
                    }
                },
                "security": [
                    {
                        "bearerAuth": []
                    }
                ]
            }
        },
        "/category/{categoryIdToGet}": {
            "get": {
                "tags": [
                    "Category"
                ],
                "summary": "Display a single category.",
                "operationId": "categorySingle",
                "parameters": [
                    {
                        "name": "categoryIdToGet",
                        "in": "path",
                        "description": "The category id",
                        "required": true,
                        "schema": {
                            "type": "integer"
                        }
                    }
                ],
                "responses": {
                    "200": {
                        "description": "Return a single category",
                        "content": {
                            "application/json": {
                                "schema": {
                                    "$ref": "#/components/schemas/Category"
                                }
                            }
                        }
                    },
                    "404": {
                        "description": "Category not found."
                    }
                },
                "security": [
                    {
                        "bearerAuth": []
                    }
                ]
            }
        },
        "/category/{categoryIdToUpdate}": {
            "post": {
                "tags": [
                    "Category"
                ],
                "summary": "Update a single category.",
                "operationId": "App\\Http\\Controllers\\Api\\CategoryController::update",
                "parameters": [
                    {
                        "name": "categoryIdToUpdate",
                        "in": "path",
                        "description": "Category id",
                        "required": true,
                        "schema": {
                            "type": "integer"
                        }
                    }
                ],
                "requestBody": {
                    "description": "Input data format",
                    "content": {
                        "multipart/form-data": {
                            "schema": {
                                "required": [
                                    "_method"
                                ],
                                "properties": {
                                    "_method": {
                                        "description": "Method Spoofing",
                                        "type": "string",
                                        "default": "PUT",
                                        "readOnly": true
                                    },
                                    "name": {
                                        "description": "Category Name",
                                        "type": "string"
                                    },
                                    "description": {
                                        "description": "Description of the category",
                                        "type": "string"
                                    }
                                },
                                "type": "object"
                            }
                        }
                    }
                },
                "responses": {
                    "200": {
                        "description": "The category was updated.",
                        "content": {
                            "application/json": {
                                "schema": {
                                    "$ref": "#/components/schemas/Category"
                                }
                            }
                        }
                    },
                    "404": {
                        "description": "Category not found"
                    }
                },
                "security": [
                    {
                        "bearerAuth": []
                    }
                ]
            }
        },
        "/category/{categoryIdToDelete}": {
            "post": {
                "tags": [
                    "Category"
                ],
                "summary": "Delete a single category.",
                "operationId": "App\\Http\\Controllers\\Api\\CategoryController::destroy",
                "parameters": [
                    {
                        "name": "categoryIdToDelete",
                        "in": "path",
                        "description": "Category id",
                        "required": true,
                        "schema": {
                            "type": "integer"
                        }
                    }
                ],
                "requestBody": {
                    "description": "Input data format",
                    "content": {
                        "multipart/form-data": {
                            "schema": {
                                "properties": {
                                    "_method": {
                                        "description": "Method Spoofing",
                                        "type": "string",
                                        "default": "DELETE",
                                        "readOnly": true
                                    }
                                },
                                "type": "object"
                            }
                        }
                    }
                },
                "responses": {
                    "200": {
                        "description": "The category was deleted.",
                        "content": {
                            "application/json": {
                                "schema": {
                                    "$ref": "#/components/schemas/Category"
                                }
                            }
                        }
                    },
                    "404": {
                        "description": "Category not found"
                    },
                    "403": {
                        "description": "Forbidden"
                    }
                },
                "security": [
                    {
                        "bearerAuth": []
                    }
                ]
            }
        },
        "/product": {
            "get": {
                "tags": [
                    "Product"
                ],
                "summary": "Display a list of products.",
                "operationId": "productAll",
                "parameters": [
                    {
                        "name": "page",
                        "in": "query",
                        "description": "The page number",
                        "required": false,
                        "schema": {
                            "type": "integer"
                        }
                    }
                ],
                "responses": {
                    "200": {
                        "description": "Return all products",
                        "content": {
                            "application/json": {
                                "schema": {
                                    "type": "array",
                                    "items": {
                                        "$ref": "#/components/schemas/Product"
                                    }
                                }
                            }
                        }
                    }
                },
                "security": [
                    {
                        "bearerAuth": []
                    }
                ]
            },
            "post": {
                "tags": [
                    "Product"
                ],
                "summary": "Create a new product.",
                "operationId": "productCreate",
                "requestBody": {
                    "description": "Input data format",
                    "content": {
                        "multipart/form-data": {
                            "schema": {
                                "required": [
                                    "name",
                                    "price"
                                ],
                                "properties": {
                                    "name": {
                                        "description": "Product Name",
                                        "type": "string"
                                    },
                                    "price": {
                                        "description": "Product Price",
                                        "type": "float"
                                    },
                                    "description": {
                                        "description": "Description of the product",
                                        "type": "string"
                                    }
                                },
                                "type": "object"
                            }
                        }
                    }
                },
                "responses": {
                    "201": {
                        "description": "The product has been saved.",
                        "content": {
                            "application/json": {
                                "schema": {
                                    "$ref": "#/components/schemas/Product"
                                }
                            }
                        }
                    }
                },
                "security": [
                    {
                        "bearerAuth": []
                    }
                ]
            }
        },
        "/product/{productIdToGet}": {
            "get": {
                "tags": [
                    "Product"
                ],
                "summary": "Display a single product.",
                "operationId": "productSingle",
                "parameters": [
                    {
                        "name": "productIdToGet",
                        "in": "path",
                        "description": "The product id",
                        "required": true,
                        "schema": {
                            "type": "integer"
                        }
                    }
                ],
                "responses": {
                    "200": {
                        "description": "Return a single product",
                        "content": {
                            "application/json": {
                                "schema": {
                                    "properties": {
                                        "id": {
                                            "type": "number"
                                        },
                                        "name": {
                                            "type": "string"
                                        },
                                        "price": {
                                            "type": "number",
                                            "format": "float"
                                        },
                                        "description": {
                                            "type": "string"
                                        },
                                        "categories": {
                                            "type": "array",
                                            "items": {
                                                "$ref": "#/components/schemas/Category"
                                            }
                                        }
                                    },
                                    "type": "object"
                                }
                            }
                        }
                    }
                },
                "security": [
                    {
                        "bearerAuth": []
                    }
                ]
            }
        },
        "/product/{productIdToUpdate}": {
            "post": {
                "tags": [
                    "Product"
                ],
                "summary": "Update a single product.",
                "operationId": "App\\Http\\Controllers\\Api\\ProductController::update",
                "parameters": [
                    {
                        "name": "productIdToUpdate",
                        "in": "path",
                        "description": "Product id",
                        "required": true,
                        "schema": {
                            "type": "integer"
                        }
                    }
                ],
                "requestBody": {
                    "description": "Input data format",
                    "content": {
                        "multipart/form-data": {
                            "schema": {
                                "required": [
                                    "_method"
                                ],
                                "properties": {
                                    "_method": {
                                        "description": "Method Spoofing",
                                        "type": "string",
                                        "default": "PUT",
                                        "readOnly": true
                                    },
                                    "name": {
                                        "description": "Product Name",
                                        "type": "string"
                                    },
                                    "description": {
                                        "description": "Description of the product",
                                        "type": "string"
                                    }
                                },
                                "type": "object"
                            }
                        }
                    }
                },
                "responses": {
                    "200": {
                        "description": "Return a single product",
                        "content": {
                            "application/json": {
                                "schema": {
                                    "properties": {
                                        "id": {
                                            "type": "number"
                                        },
                                        "name": {
                                            "type": "string"
                                        },
                                        "price": {
                                            "type": "number",
                                            "format": "float"
                                        },
                                        "description": {
                                            "type": "string"
                                        },
                                        "categories": {
                                            "type": "array",
                                            "items": {
                                                "$ref": "#/components/schemas/Category"
                                            }
                                        }
                                    },
                                    "type": "object"
                                }
                            }
                        }
                    },
                    "404": {
                        "description": "Product not found"
                    }
                },
                "security": [
                    {
                        "bearerAuth": []
                    }
                ]
            }
        },
        "/product/{productIdToDelete}": {
            "post": {
                "tags": [
                    "Product"
                ],
                "summary": "Delete a single product.",
                "operationId": "App\\Http\\Controllers\\Api\\ProductController::destroy",
                "parameters": [
                    {
                        "name": "productIdToDelete",
                        "in": "path",
                        "description": "Product id",
                        "required": true,
                        "schema": {
                            "type": "integer"
                        }
                    }
                ],
                "requestBody": {
                    "description": "Input data format",
                    "content": {
                        "multipart/form-data": {
                            "schema": {
                                "properties": {
                                    "_method": {
                                        "description": "Method Spoofing",
                                        "type": "string",
                                        "default": "DELETE",
                                        "readOnly": true
                                    }
                                },
                                "type": "object"
                            }
                        }
                    }
                },
                "responses": {
                    "200": {
                        "description": "The product was deleted.",
                        "content": {
                            "application/json": {
                                "schema": {
                                    "$ref": "#/components/schemas/Product"
                                }
                            }
                        }
                    },
                    "404": {
                        "description": "Product not found"
                    },
                    "403": {
                        "description": "Forbidden"
                    }
                },
                "security": [
                    {
                        "bearerAuth": []
                    }
                ]
            }
        }
    },
    "components": {
        "schemas": {
            "Category": {
                "properties": {
                    "id": {
                        "type": "integer"
                    },
                    "name": {
                        "type": "string"
                    },
                    "description": {
                        "type": "string",
                        "nullable": true
                    },
                    "user_id": {
                        "type": "integer",
                        "writeOnly": true
                    },
                    "created_at": {
                        "type": "string",
                        "format": "date-time",
                        "readOnly": true,
                        "nullable": true
                    },
                    "updated_at": {
                        "type": "string",
                        "format": "date-time",
                        "readOnly": true,
                        "nullable": true
                    }
                },
                "type": "object"
            },
            "Product": {
                "properties": {
                    "id": {
                        "type": "integer"
                    },
                    "name": {
                        "type": "string"
                    },
                    "price": {
                        "type": "number",
                        "format": "float"
                    },
                    "description": {
                        "type": "string",
                        "nullable": true
                    },
                    "user_id": {
                        "type": "integer",
                        "writeOnly": true
                    },
                    "created_at": {
                        "type": "string",
                        "format": "date-time",
                        "readOnly": true,
                        "nullable": true
                    },
                    "updated_at": {
                        "type": "string",
                        "format": "date-time",
                        "readOnly": true,
                        "nullable": true
                    },
                    "categories": {
                        "type": "array",
                        "items": {
                            "properties": {
                                "id": {
                                    "type": "integer"
                                },
                                "name": {
                                    "type": "string"
                                },
                                "description": {
                                    "type": "string"
                                }
                            },
                            "type": "object"
                        }
                    }
                },
                "type": "object"
            },
            "User": {
                "properties": {
                    "id": {
                        "type": "integer"
                    },
                    "name": {
                        "type": "string"
                    },
                    "email": {
                        "type": "string",
                        "format": "email"
                    },
                    "email_verified_at": {
                        "type": "string",
                        "format": "date-time",
                        "readOnly": true,
                        "nullable": true
                    },
                    "created_at": {
                        "type": "string",
                        "format": "date-time",
                        "readOnly": true,
                        "nullable": true
                    },
                    "updated_at": {
                        "type": "string",
                        "format": "date-time",
                        "readOnly": true,
                        "nullable": true
                    }
                },
                "type": "object"
            }
        },
        "responses": {
            "404": {
                "description": "Product not found."
            }
        },
        "securitySchemes": {
            "bearerAuth": {
                "type": "apiKey",
                "description": "Use a global email / password combo to obtain a token in Auth section. Put your token in the box below like this «Bearer [your-token]»",
                "name": "Authorization",
                "in": "header",
                "bearerFormat": "JWT"
            }
        }
    },
    "tags": [
        {
            "name": "Authentication",
            "description": "Everything about Auth API"
        },
        {
            "name": "Category",
            "description": "Everything about Category API"
        },
        {
            "name": "Product",
            "description": "Everything about Product API"
        }
    ]
}